TXG
YI
PIH
PIHPP
TURN
FLWS
BCOW
ONEM
FCCY
SRCE
VNET
TWOU
QFIN
KRKR
JOBS
ETNB
JFK
JFKKR
JFKKU
JFKKW
EGHT
JFU
AAON
ABEO
ABMD
AXAS
ACIU
ACIA
ACTG
ACHC
ACAD
ACAM
ACAMU
ACAMW
ACST
AXDX
XLRN
ARAY
ACRX
ACER
ACHV
ACIW
ACRS
ACMR
ACNB
ACOR
ACTT
ACTTU
ACTTW
ATVI
ADMS
ADMP
AHCO
ADAP
ADPT
ADXN
ADUS
AEY
IOTS
ADIL
ADILW
ADMA
ADBE
ADTN
ADRO
ADES
AEIS
AMD
ADXS
ADVM
DWEQ
DWAW
DWUS
DWMC
DWSH
ACT
AEGN
AGLE
AEHR
AMTX
AERI
AVAV
ARPO
AIH
AEZS
AEMD
AFMD
AFYA
AGBA
AGBAR
AGBAU
AGBAW
AGEN
AGRX
AGYS
AGIO
AGMH
AGNC
AGNCM
AGNCN
AGNCO
AGNCP
AGFS
AGFSW
AIKI
ALRN
AIMT
AIRT
AIRTP
AIRTW
ATSG
AIRG
ANTE
AKAM
AKTX
SONG
SONGW
AKCA
AKBA
KERN
KERNW
AKRO
AKER
AKRX
AKTS
ALRM
ALSK
ALAC
ALACR
ALACU
ALACW
ALBO
ALDX
ALEC
ALRS
ALXN
ALCO
ALGN
ALIM
ALYA
ALJJ
ALKS
ALLK
ABTX
ALGT
ALGR
ALGRR
ALGRU
ALGRW
ALNA
ARLP
LNT
AESE
AHPI
AMOT
ALLO
ALLT
MDRX
ALNY
AOSL
GOOG
GOOGL
SMCP
ATEC
ALPN
ALTR
ATHE
ALT
ASPS
AIMC
ALTM
AMAG
AMAL
AMRN
AMRK
AMZN
AMBC
AMBA
AMCX
AMCI
AMCIU
AMCIW
DOX
AMED
AMTB
AMTBB
UHAL
AMRH
AMRHW
ATAX
AMOV
AAL
AFIN
AFINP
AMNB
ANAT
AOBC
APEI
AREC
AMRB
AMSWA
AMSC
AMWD
CRMT
ABCB
AMSF
ASRV
ASRVP
ATLO
AMGN
FOLD
AMKR
AMPH
IBUY
AMHC
AMHCU
AMHCW
ASYS
AMRS
ADI
ANAB
AVXL
ANCN
ANDA
ANDAR
ANDAU
ANDAW
ANGI
ANGO
ANIP
ANIK
ANIX
ANPC
ANSS
ATRS
ATEX
APLS
APEX
APXT
APXTU
APXTW
APOG
APEN
AINV
AMEH
APPF
APPN
AAPL
APDN
AGTC
AMAT
AAOI
APLT
APRE
APVO
APTX
APM
APTO
APYX
AQMS
AQB
AQST
ARAV
ABUS
ABIO
RKDA
ARCB
ACGL
ACGLO
ACGLP
FUV
ARCE
ARCT
ARQT
ARDX
ARNA
ARCC
ARGX
ARDS
ARKR
DWCR
DWAT
AROW
ARWR
TARA
ARTL
ARTLW
ARTNA
ARTW
ARVN
ARYA
ARYAU
ARYAW
ASNA
ASND
APWC
ASLN
ASML
ASPU
AZPN
ASMB
ASRT
ASFI
ASTE
ATRO
ALOT
ASTC
ASUR
AACG
ATRA
ATNX
ATHX
ATIF
AAME
ACBI
AUB
AY
ATLC
AAWW
AFH
ATCX
ATCXW
TEAM
ATNI
ATOM
ATOS
BCEL
ATRC
ATRI
LIFE
AUBN
AUDC
AEYE
AUPH
EARS
JG
ADSK
AUTL
ADP
AUTO
AVDL
AVCO
ATXI
AVEO
AVNW
CDMO
CDMOP
AVID
AVGR
CAR
RCEL
AVT
AVRO
AWRE
ACLS
AXLA
AXGN
AAXN
AXNX
AXGT
AXSM
AXTI
AYTU
AZRX
BCOM
RILY
RILYG
RILYH
RILYI
RILYM
RILYN
RILYO
RILYP
RILYZ
BOSC
BIDU
BCPC
BLDP
BANF
BANFP
BCTF
BAND
BFC
BOCH
BMRC
BMLP
BKSC
BOTJ
OZK
BSVN
BFIN
BWFG
BANR
BZUN
DFVL
DFVS
DTUL
DTUS
DTYL
DTYS
FLAT
STPP
TAPR
BBSI
GOLD
BSET
ZTEST
BXRX
BCML
BBQ
BCBP
BECN
BEAM
BBGI
BBBY
BGNE
BELFA
BELFB
BLPH
BLCM
BLU
BNFT
BFYT
BNTC
BNTCW
BRY
BWMX
XAIR
BYND
BYSI
BGCP
BCYC
BGFV
BRPA
BRPAR
BRPAU
BRPAW
BILI
BASI
BCDA
BCDAW
BIOC
BCRX
BDSI
BFRA
BIIB
BHTG
BKYI
BIOL
BLFS
BLRX
BMRN
BMRA
BNGO
BNGOW
BVXV
BVXVW
BNTX
BPTH
BSGM
BSTC
TECH
BEAT
BTAI
BJRI
BDTX
BLKB
BL
BKCC
TCPC
BLNK
BLNKW
BLMN
BCOR
BLBD
BHAT
BLUE
BKEP
BKEPP
BPMC
ITEQ
BMCH
BSBK
WIFI
BOKF
BOKFL
BNSO
BKNG
BIMI
BRQS
BOMN
BPFH
EPAY
BOXL
BCLI
BWAY
BBI
BDGE
BBIO
BLIN
BWB
BRID
BCOV
BHF
BHFAL
BHFAP
AVGO
AVGOP
BVSN
BYFC
BWEN
BROG
BROGW
BPY
BPYPN
BPYPO
BPYPP
BPYU
BPYUP
BRKL
BRKS
BRP
DOOO
BRKR
BMTC
BSQR
BLDR
BFST
CFFI
CHRW
CABA
CCMP
CDNS
CDZI
CZR
CSTE
CLBS
CHY
CHI
CCD
CHW
CGO
CPZ
CSQ
CAMP
CVGW
CALA
CALM
CLMT
CLXT
CMBM
CATC
CAC
CAMT
CAN
CSIQ
CGIX
CPHC
CBNK
CCBG
CPLP
CSWC
CSWCL
CPTA
CPTAG
CPTAL
CFFN
CAPR
CSTR
CPST
CARA
CSII
CDLX
CATM
CDNA
CTRE
CARG
CARO
TAST
CARE
CARV
CASA
CWST
CASY
CASI
CASS
SAVA
CSTL
CTRM
CATB
CBIO
CPRX
CATS
CATY
CVCO
CBFV
CBAT
CBMB
CBOE
CBTX
CDK
CDW
CECE
CELC
CLDX
APOP
APOPW
CLRB
CLRBZ
CLLS
CBMG
CLSN
CELH
CYAD
CETX
CETXP
CETXW
CDEV
CSFL
CNTG
CETV
CFBK
CENT
CENTA
CVCY
CTRC
CENX
CNBKA
CNTY
CRNT
CERC
CRNC
CERN
CERS
CEVA
CFFA
CFFAU
CFFAW
CSBR
CHNG
CHNGU
CYOU
BURG
CTHR
GTLS
CHTR
CHKP
CHEK
CHEKZ
CKPT
CEMI
CCXI
CHMG
CHFS
CHMA
CSSE
CSSEP
PLCE
CMRX
CAAS
CBPO
CCCL
CCRC
JRJC
HGSH
CIH
CIFS
CJJD
CHNR
CREG
SXTC
CXDC
PLIN
CNET
IMOS
COFS
CHPM
CHPMU
CHPMW
CDXC
CHSCL
CHSCM
CHSCN
CHSCO
CHSCP
CHDN
CHUY
CDTX
CIIC
CIICU
CIICW
CMCT
CMCTP
CMPR
CNNB
CINF
CIDM
CTAS
CRUS
CSCO
CTRN
CTXR
CTXRW
CZNC
CZWI
CIZN
CTXS
CHCO
CIVB
CLAR
CLNE
CLSK
CACG
YLDE
LRGE
CLFD
CLRO
CLPT
CLSD
CLIR
CBLI
CLVS
CLPS
CME
CCNE
CNSP
CCB
COKE
COCP
CODA
CDXS
CODX
CVLY
JVA
CCOI
CGNX
CTSH
CWBR
COHR
CHRS
COHU
CLCT
COLL
CIGI
CLGN
CBAN
COLB
CLBK
COLM
CMCO
CMCSA
CBSH
CBSHP
CVGI
COMM
JCS
ESXB
CFBI
CTBI
CWBC
CVLT
CGEN
CPSI
CTG
SCOR
CHCI
CMTL
CNAT
CNCE
BBCP
CDOR
CNDT
CFMS
CNFR
CNFRL
CNMD
CNOB
CONN
CNSL
CWCO
CNST
ROAD
CPSS
CFRX
CPAA
CPAAU
CPAAW
CPRT
CRBP
CORT
CORE
CSOD
CORV
CRTX
CLDB
CRVL
CRVS
CSGP
COST
CPAH
ICBK
COUP
CVTI
CVET
COWN
COWNL
COWNZ
CPSH
CRAI
CBRL
BREW
CREX
CREXW
CACC
DGLD
DSLV
GLDI
SLVO
TVIX
UGLD
USLV
USOI
VIIX
ZIV
CREE
CRSA
CRSAU
CRSAW
CCAP
CRESY
CRNX
CRSP
CRTO
CROX
CRON
CCRN
CFB
CRWD
CRWS
CYRX
CYRXW
CSGS
CCLP
CSPI
CSWI
CSX
CTIC
CUE
CUI
CPIX
CMLS
CRIS
CUTR
CVBF
CVV
CYAN
CYBR
CYBE
CYCC
CYCCP
CYCN
CBAY
CY
CYRN
CONE
CYTK
CTMX
CTSO
DJCO
DAKT
DARE
DRIO
DRIOW
DZSI
DSKE
DSKEW
DAIO
DDOG
DTSS
PLAY
DTEA
DFNL
DINT
DUSA
DWLD
DWSN
DBVT
DCPH
TACO
TACOW
DMPI
DNLI
DENN
XRAY
DMTK
DXLG
DSWL
DXCM
DFPHU
DMAC
DEAC
DEACU
DEACW
DHIL
FANG
DPHC
DPHCU
DPHCW
DRNA
DFFN
DGII
DMRC
DRAD
DRADP
DGLY
APPS
DCOM
DCOMP
DIOD
DRTT
DISCA
DISCB
DISCK
DISH
DHC
DHCNI
DHCNL
DLHC
BOOM
DOCU
DOGZ
DLTR
DLPN
DLPNW
DOMO
DGICA
DGICB
DMLP
DORM
DOYU
LYL
DBX
DCAR
DSPG
DLTH
DNKN
DUOT
DRRX
DXPE
DYAI
DYNT
DVAX
ETFC
SSP
EBMT
EGBN
EGLE
EGRX
ESSC
ESSCR
ESSCU
ESSCW
EWBC
EML
EAST
EVGBC
EVSTC
EVLMC
EBAY
EBAYL
EBIX
ECHO
SATS
MOHO
EDAP
EDSA
EDNT
EDIT
EDTX
EDTXU
EDTXW
EDUC
EGAN
EH
EHTH
EIDX
EIGR
EKSO
LOCO
ESLT
ERI
SOLO
SOLOW
ECOR
EA
ELSE
ESBK
ELOX
ELTK
EMCF
EMKR
EMMS
ENTA
ECPG
WIRE
ENDP
ELGX
NDRA
NDRAW
EIGI
WATT
EFOI
ERII
ENG
ENLV
ENOB
ENPH
ESGR
ESGRO
ESGRP
ETTX
ENTG
ENTX
ENTXW
EBTC
EFSC
EVSI
EVSIW
EPZM
PLUS
EPSN
EQ
EQIX
EQBK
ERIC
ERIE
ERYP
ESCA
ESPR
ESQ
ESSA
EPIX
ESTA
VBND
VUSE
VIDI
ETON
ETSY
CLWT
EDRY
EEFT
ESEA
EVLO
EVBG
EVK
EVER
MRAM
EVOP
EVFM
EVGN
EVOK
EOLS
EVOL
EXAS
XGN
FLAG
ROBO
XELA
EXEL
EXC
EXFO
XCUR
EXLS
EXPI
EXPE
EXPD
EXPC
EXPCU
EXPCW
EXPO
STAY
XOG
EXTR
EYEG
EYEGW
EYEN
EYPT
EZPW
FFIV
FB
FLMN
FLMNW
DUO
FANH
FARM
FMAO
FMNB
FAMI
FARO
FAST
FAT
FATE
FBSS
FNHC
FENC
GSM
FFBW
FGEN
FDBC
ONEQ
FDUS
FDUSG
FDUSL
FDUSZ
FRGI
FITB
FITBI
FITBO
FITBP
FISI
FNJN
FSRV
FSRVU
FSRVW
FTAC
FTACU
FTACW
FEYE
FBNC
FNLC
FRBA
BUSE
FBIZ
FCAP
FCBP
FCNCA
FCNCP
FCBC
FCCO
FDEF
FFBC
FFIN
THFF
FFNW
FFWM
FGBI
FHB
INBK
INBKL
INBKZ
FIBK
FRME
FMBH
FMBI
FXNC
FNWB
FSFG
FSEA
FSLR
FAAR
FPA
BICK
FBZ
FTHI
FCAL
FCAN
FTCS
FCEF
FCA
SKYY
RNDM
FDT
FDTS
FVC
FV
IFV
DDIV
DVOL
DVLU
DWPP
DALI
FDNI
FEM
RNEM
FEMB
FEMS
FTSM
FEP
FEUZ
FGM
FTGC
FTLB
HYLS
FHK
NFTY
FTAG
FTRI
LEGR
NXTG
FPXI
FPXE
FJP
FEX
FTC
RNLC
FTA
FLN
LMBS
LDSF
FMB
FMK
FNX
FNY
RNMC
FNK
FAD
FAB
MDIV
MCEF
FMHI
QABA
ROBT
FTXO
QCLN
GRID
CIBR
FTXG
CARZ
FTXN
FTXH
FTXD
FTXL
TDIV
FTXR
QQEW
QQXT
QTEC
AIRR
RDVY
RFAP
RFDI
RFEM
RFEU
FID
FTSL
FYX
FYC
RNSC
FYT
SDVY
FKO
FCVT
FDIV
FSZ
FIXD
TUSA
FKU
RNDV
FUNC
FUSB
MYFW
FCFS
SVVC
FSV
FISV
FIVE
FPRX
FVE
FIVN
FLEX
FLXN
SKOR
MBSD
ASET
ESG
ESGG
LKOR
QLC
FPAY
FLXS
FLIR
FLNT
FLDM
FFIC
FNCB
FOCS
FONR
FSCT
FRSX
FORM
FORTY
FORR
FRTA
FTNT
FBIO
FBIOP
FTSV
FMCI
FMCIU
FMCIW
FWRD
FORD
FWP
FOSL
FOX
FOXA
FOXF
FRAN
FRG
FELE
FRAF
FRHC
RAIL
FEIM
FREQ
FRPT
FTDR
FTR
FRPH
FSBW
FSBC
HUGE
FTEK
FCEL
FULC
FLGT
FORK
FLL
FULT
FNKO
FUTU
FTFT
FFHL
FVCB
WILC
GTHX
GAIA
GLPG
GALT
GRTX
GLMD
GMDA
GLPI
GRMN
GARS
GLIBA
GLIBP
GDS
GNSS
GENC
GFN
GFNCP
GFNSL
GENE
GNFT
GNUS
GMAB
GNMK
GNCA
GNPX
GNTX
THRM
GEOS
GABC
GERN
GEVO
ROCK
GIGM
GIII
GILT
GILD
GBCI
GLAD
GLADD
GLADL
GOOD
GOODM
GOODN
GAIN
GAINL
GAINM
LAND
LANDP
GLBZ
GBT
ENT
GBLI
GBLIL
GBLIZ
SELF
GWRS
DRIV
POTX
CLOU
KRMA
BUG
DAX
EBIZ
FINX
CHIC
AIQ
GNOM
BFIT
SNSR
LNGR
MILN
EFAS
QYLD
BOTZ
CATH
SOCL
ALTY
SRET
GXTG
HERO
YLCO
GLBS
GSMG
GSMGW
GLUU
GLYC
GOGO
GLNG
GMLP
GMLPP
DNJR
GDEN
GOGL
GBDC
GTIM
GSHD
GPRO
GPAQ
GPAQU
GPAQW
GHIV
GHIVU
GHIVW
GMHI
GMHIU
GMHIW
GOSS
LOPE
GRVY
GECC
GECCL
GECCM
GECCN
GEC
GLDD
GSBC
GRBK
GPP
GPRE
GCBC
GTEC
GNLN
GLRE
GRNQ
GNRSU
GSKY
GRNV
GRNVR
GRNVU
GRNVW
GDYN
GDYNW
GSUM
GRIF
GRFS
GRIN
GRTS
GO
GRPN
GRWG
OMAB
GGAL
GVP
GSIT
GTYH
GNTY
GFED
GH
GHSI
GIFI
GURE
GPOR
GWPH
GWGH
GXGX
GXGXU
GXGXW
GYRO
HEES
HLG
HNRG
HALL
HALO
HLNE
HJLI
HJLIW
HWC
HWCPL
HAFC
HAPP
HONE
HLIT
HARP
HROW
HBIO
HCAP
HCAPZ
HAS
HA
HWKN
HWBK
HYAC
HYACU
HYACW
HAYN
HBT
HDS
HHR
HCAT
HCCO
HCCOU
HCCOW
HCSG
HTIA
HQY
HSTM
HTLD
HTLF
HTBX
HEBT
HSII
HELE
HLIO
HSDT
HMTV
HNNA
HCAC
HCACU
HCACW
HSIC
HEPA
HTBK
HFWA
HCCI
MLHR
HRTX
HSKA
HX
HFFG
HIBB
SNLN
HIHO
HIMX
HIFS
HQI
HCCH
HCCHR
HCCHU
HCCHW
HMNF
HMSY
HOLI
HOLX
HBCP
HOMB
HFBL
HMST
HTBI
FIXX
HOFT
HOOK
HOPE
HBNC
HRZN
HZNP
TWNK
TWNKW
HOTH
HMHC
HWCC
HOVNP
HBMD
HTGM
HTHT
HUBG
HSON
HDSN
HHT
HUIZ
HBAN
HBANN
HBANO
HURC
HURN
HCM
HBP
HVBC
HYRE
IIIV
IAC
IBKC
IBKCN
IBKCO
IBKCP
ICAD
IEP
ICCH
ICFI
ICHR
ICLK
ICLR
ICON
ICUI
IPWR
IDEX
IDYA
INVE
IDRA
IDXX
IEC
IESC
IROQ
IFMK
IGMS
IHRT
INFO
IIVI
IKNX
ILMN
IMAB
IMAC
IMACW
ISNS
IMRA
IMBI
IMMR
ICCC
IMUX
IMGN
IMMU
IMVT
IMVTU
IMVTW
IMRN
IMRNW
IMMP
PI
IMV
INCY
INDB
IBCP
IBTX
ILPT
INFN
INFI
IFRX
III
IEA
IEAWW
IMKTA
INMD
INMB
IPHA
INWK
INOD
IOSP
INNT
ISSC
INVA
INGN
INOV
INO
INPX
INSG
NSIT
ISIG
INSM
INSE
IIIN
PODD
INSU
INSUU
INSUW
NTEC
IART
IMTE
INTC
NTLA
IDN
IPAR
IBKR
ICPT
IDCC
TILE
INAP
IBOC
IGIC
IGICW
IMXI
IDXG
XENT
IPLDP
IVAC
INTL
ITCI
IIN
INTU
ISRG
PLW
ADRE
BSCK
BSJK
BSCL
BSJL
BSML
BSAE
BSCM
BSJM
BSMM
BSBE
BSCN
BSJN
BSMN
BSCE
BSCO
BSJO
BSMO
BSDE
BSCP
BSJP
BSMP
BSCQ
BSJQ
BSMQ
BSCR
BSJR
BSMR
BSCS
BSMS
BSCT
BSMT
PKW
PFM
PYZ
PEZ
PSL
PIZ
PIE
PXI
PFI
PTH
PRN
PDP
DWAS
PTF
PUI
IDLB
PRFZ
PIO
PGJ
PEY
IPKW
PID
KBWB
KBWD
KBWY
KBWP
KBWR
PNQI
PDBC
QQQ
ISDX
ISDS
ISEM
IUS
IUSS
USLB
PSCD
PSCC
PSCE
PSCF
PSCH
PSCI
PSCT
PSCM
PSCU
VRIG
PHO
ISTR
CMFNL
ICMB
ISBC
ITIC
NVIV
IONS
IOVA
IPGP
CLRG
CSML
IQ
IRMD
IRTC
IRIX
IRDM
IRBT
IRWD
IRCP
SLQD
ISHG
SHY
TLT
IEI
IEF
AIA
USIG
COMT
ISTB
IXUS
IUSG
IUSV
IUSB
HEWG
SUSB
ESGD
ESGE
LDEM
ESGU
SUSL
SUSC
XT
FALN
IFEU
IFGL
BGRN
IGF
GNMA
IBTA
IBTB
IBTD
IBTE
IBTF
IBTG
IBTH
IBTI
IBTJ
HYXE
IGIB
IGOV
EMB
MBB
JKI
ACWX
ACWI
AAXJ
EWZS
MCHI
SCZ
EEMA
EMXC
EUFN
IEUS
RING
SDG
EWJE
EWJV
ENZL
QAT
TUR
UAE
IBB
SOXX
PFF
AMCA
EMIF
ICLN
WOOD
INDY
IJT
DVY
SHV
IGSB
ITMR
ITI
ITRM
ITRI
ITRN
ISEE
IZEA
JJSF
MAYS
JBHT
JCOM
JKHY
JACK
JAGX
JAKK
JRVR
JAN
JSML
JSMD
JAZZ
JD
JRSH
JBLU
JCTCF
JFIN
JMPNL
JMPNZ
MFH
JBSS
JOUT
JNCE
YY
KALU
KXIN
KALA
KLDO
KALV
KMDA
KNDI
KRTX
KPTI
KZIA
KBLM
KBLMR
KBLMU
KBLMW
KBSF
KRNY
KELYA
KELYB
KMPH
KFFB
KEQU
KTCC
KZR
KFRC
KE
KBAL
KIN
KGJI
KINS
KNSA
KNSL
KIRK
KTOV
KTOVW
KLAC
KLXE
KOD
KOPN
KRNT
KOSS
KWEB
KTOS
KRYS
KLIC
KURA
KRUS
KVHI
FSTR
LJPC
LSBK
LBAI
LKFN
LAKE
LRCX
LAMR
LANC
LCA
LCAHU
LCAHW
LNDC
LARK
LMRK
LMRKN
LMRKO
LMRKP
LE
LSTR
LNTH
LTRX
LSCC
LAUR
LAWS
LAZY
LCNB
LPTX
LEGH
INFR
LVHD
SQLV
LACQ
LACQU
LACQW
LMAT
TREE
LEVL
LXRX
LX
LFAC
LFACU
LFACW
LGIH
LHCG
LLIT
LBRDA
LBRDK
LBTYA
LBTYB
LBTYK
LILA
LILAK
BATRA
BATRK
FWONA
FWONK
LSXMA
LSXMB
LSXMK
LTRPA
LTRPB
LSACU
LCUT
LFVN
LWAY
LGND
LTBR
LPTH
LLEX
LMB
LLNW
LMST
LMNL
LMNR
LINC
LECO
LIND
LPCN
LIQT
YVR
LQDA
LQDT
LFUS
LIVK
LIVKU
LIVKW
LIVN
LOB
LIVE
LPSN
LIVX
LVGO
LIZI
LKQ
LMFA
LMFAW
LMPX
LOGC
LOGI
LOGM
CNCR
CHNA
LONE
LOAC
LOACR
LOACU
LOACW
LOOP
LORL
LPLA
LYTS
LK
LULU
LITE
LMNX
LUNA
LKCO
LBC
LYFT
MCBC
MFNC
MTSI
MGNX
MDGL
MAGS
MGLN
MGTA
MGIC
MGYR
MHLD
MNSB
MJCO
MMYT
MBUU
MLVF
TUSK
MANH
LOAN
MNTX
MTEX
MNKD
MANT
MARA
MCHX
MRIN
MARPS
MRNS
MRKR
MKTX
MRLN
MAR
MBII
MRTN
MMLP
MRVL
MASI
MCFT
MTCH
MTLS
MTRX
MAT
MATW
MXIM
MGRC
MDCA
MDJH
MDRR
MDRRP
MBNKP
MFIN
MFINL
MDIA
MNOV
MDGS
MDGSW
MDWD
MEDP
MEIP
MGTX
MLCO
MLNX
MNLO
MTSL
MELI
MBWM
MERC
MBIN
MBINO
MBINP
MRCY
MREO
MCMJ
MCMJW
EBSB
VIVO
MRBK
MMSI
SNUG
MACK
MRSN
MRUS
MESA
MLAB
MESO
CASH
MEOH
MCBS
MGEE
MGPI
MBOT
MCHP
MU
MSFT
MSTR
MVIS
MICT
MPB
MTP
MCEP
MBCN
MSEX
MSBI
MSVB
MOFG
MIST
MLND
TIGO
MIME
MNDO
NERV
MGEN
MRTX
MIRM
MSON
MIND
MINDP
MITK
MKSI
MMAC
MTC
MINI
MOBL
MRNA
MOGO
MWK
MKD
MTEM
MBRX
MNTA
MOMO
MKGI
MCRI
MDLZ
MGI
MDB
MNCL
MNCLU
MNCLW
MPWR
MNPR
MNRO
MRCC
MRCCL
MNST
MORN
MORF
MOR
MOSY
MPAA
MOTS
MOXC
COOP
MSBF
MTBC
MTBCP
MTSC
MUDS
MUDSU
MUDSW
GRIL
MBIO
MFSF
MVBF
MYSZ
MYL
MYOK
MYOS
MYRG
MYGN
NBRV
NAKD
NNDM
NSTG
NAOV
NH
NK
NSSC
NDAQ
NTRA
NATH
NKSH
FIZZ
NCMI
NESR
NESRW
NGHC
NGHCN
NGHCO
NGHCP
NGHCZ
NHLD
NHLDW
NATI
NRC
NSEC
EYE
NWLI
NAII
NHTC
NATR
NTUS
JSM
NAVI
NMCI
NBTB
NCSM
NEBU
NEBUU
NEBUW
NKTR
NMRD
NEOG
NEO
NLTX
NTGN
NEON
NEOS
NVCN
NEPH
NEPT
UEPS
NETE
NTAP
NTES
NFIN
NFINU
NFINW
NFLX
NTGR
NTCT
NTWK
NBSE
NRBO
NBIX
NURO
NUROW
STIM
NTRP
NBEV
NFE
NPA
NPAUU
NPAWW
NYMT
NYMTM
NYMTN
NYMTO
NYMTP
NEWA
NBACU
NWL
NWGI
NMRK
NWS
NWSA
NEWT
NEWTI
NEWTL
NXST
NXTC
NEXT
NXGN
NGM
NODK
EGOV
NICE
NICK
NCBS
NIU
LASR
NMIH
NNBR
NBL
NBLX
NDLS
NDSN
NSYS
NBN
NTIC
NTRS
NTRSO
NFBK
NRIM
NWBI
NWPX
NLOK
NCLH
NWFL
NVFY
NVMI
NOVN
NOVT
NVAX
NVCR
NVUS
NUAN
NCNA
NTNX
NUVA
QQQX
NVEE
NVEC
NVDA
NXPI
NXTD
NYMX
OIIM
OVLY
OCSL
OCSI
OMP
OAS
OBLN
OBSV
OBCI
OPTT
OCFC
OFED
OCGN
OCUL
ODT
OMEX
ODP
OPI
OPINI
OFS
OFSSI
OFSSL
OFSSZ
OCCI
OCCIP
OVBC
OKTA
ODFL
ONB
OPOF
OSBC
OLLI
ZEUS
OFLX
OMER
OMCL
ON
ONCY
ONTX
ONTXW
ONCS
ONCT
OSS
OSPN
OSW
ONEW
OPBK
OTEX
OPRA
OPES
OPESU
OPESW
OPGN
OPGNW
OPNT
OPK
OPRT
OBAS
OCC
OPRX
OPHC
OPTN
OPCH
OPB
ORMP
OSUR
ORBC
ORTX
ORLY
OGI
ORGO
ONVO
ORGS
SEED
OBNK
OESX
ORSN
ORSNR
ORSNU
ORSNW
ORRF
OFIX
KIDS
OSIS
OSMT
OSN
OTEL
OTIC
OTTW
OTTR
OTLK
OTLKW
OSTK
OVID
OXBR
OXBRW
OXFD
OXLC
OXLCM
OXLCO
OXLCP
OXSQ
OXSQL
OXSQZ
OYST
PFIN
PTSI
PCAR
HERD
ECOW
VETS
PACB
PEIX
PMBC
PPBI
PCRX
PACW
PAE
PAEWW
PLMR
PAAS
PANL
PZZA
PRTK
TEUM
PCYG
PKBK
PKOH
PTNR
PASG
PBHC
PATK
PNBK
PATI
PDCO
PTEN
PAVM
PAVMW
PAVMZ
PAYX
PCTY
PYPL
PAYS
PBBI
CNXN
PCB
PCSB
PCTI
PDCE
PDFS
PDLI
PDLB
PDSB
PGC
PEGA
PTON
PENN
PVAC
PFLT
PNNT
PNNTG
PWOD
WRLS
WRLSR
WRLSU
WRLSW
PEBO
PEBK
PFIS
PBCT
PBCTP
PUB
PEP
PRCP
PRDO
PRFT
DCIX
PFMT
PERI
PESI
PPIH
PSNL
PETQ
PETS
PFSW
PGTI
PHAS
PHAT
PAHC
PHIO
PHIOW
PLAB
PHUN
PHUNW
PICO
PLL
PIRS
PPC
PDD
PME
PNFP
PT
PBFS
PPSI
PXLW
PLYA
PLXS
PLUG
PLBC
PS
PSTI
PSTV
PSTVZ
PLXP
PCOM
POLA
PTE
POOL
POPE
BPOP
BPOPM
BPOPN
KCAPL
PTMN
PTLA
PPHI
PBPB
PCH
POWL
POWI
PBTS
PWFL
PPD
PRAA
PRAH
PGEN
PRPO
DTIL
POAI
PFBC
PLPC
PFBI
PINC
PRVL
PRGX
PSMT
PNRG
PRMW
PRIM
PVAL
PFG
BTEC
PDEV
GENY
PSET
PY
PMOM
PLC
USMC
PSC
PSM
PRNB
PRTH
UFO
PDEX
IPDN
PFHD
PAAC
PAACR
PAACU
PAACW
PFIE
PROF
PGNX
PRGS
PGNY
PFPT
PRPH
PTAC
PTACU
PTACW
PRQR
EQRR
BIB
UBIO
TQQQ
ZBIO
SQQQ
BIS
PSEC
PTGX
PTVCA
PTVCB
PTI
PRTA
PRVB
PVBC
PROV
PBIP
PMD
PTC
PTCT
PHCF
PULM
PLSE
PBYI
PACQ
PACQU
PACQW
PCYO
PRPL
PUYI
PXS
QK
QADA
QADB
QCRH
QGEN
QIWI
QRVO
QCOM
QBAK
QLYS
QTRX
QMCO
QRHC
QUIK
QDEL
QNST
QUMU
QTNT
QRTEA
QRTEB
QTT
RRD
RCM
RARX
RADA
RDCM
RDUS
RDNT
RDWR
METC
RMBS
RAND
RNDB
RPD
RAPT
RTLR
RAVE
RAVN
RBB
ROLL
RICK
RCMT
RDI
RDIB
BLCN
RNWK
RP
RETA
RCON
REPH
RRBI
RRGB
RRR
RDVT
RDFN
RDHL
RBZ
REED
REG
REGN
RGNX
RGLS
REKR
RBNC
RELV
RLMD
MARK
RNST
REGI
RCII
RPAY
RGEN
REPL
KRMD
RBCAA
FRBK
REFR
RESN
RECN
TORC
ROIC
RETO
RTRX
RVNC
RVMD
RWLK
REXN
REYN
RFIL
RGCO
RBKB
RYTM
RBBN
RIBT
RELL
RMBI
RIGL
RNET
RMNI
RIOT
REDU
RTTR
RVSB
RIVE
RCKT
RMTI
RCKY
RMCF
ROKU
ROSE
ROSEU
ROSEW
ROST
RGLD
RTIX
RBCN
RUBY
RUHN
RMBL
RUSHA
RUSHB
RUTH
RYAAY
STBA
SANW
SBRA
SABR
SAEX
SFET
SAFT
SGA
SAGE
SAIA
SLRX
SALM
SAL
SAFM
SASR
SGMO
SANM
SNY
SPNS
SRPT
STSA
SVRA
SBFG
SBBX
SBAC
SCSC
SMIT
SCHN
SRRK
SCHL
SDGR
SAMA
SAMAU
SAMAW
SGMS
SCPL
SCPH
WORX
SCYX
SEAC
SBCF
STX
SHIP
SHIPW
SHIPZ
SPNE
SGEN
EYES
EYESW
SECO
SCWX
SNFCA
SEEL
SEIC
SLCT
SIC
SELB
SIGI
SLS
LEDS
SMTC
SNCA
SENEA
SENEB
SNES
AIHS
SRTS
SRTSW
SQBG
MCRB
SVC
SREV
SFBS
SESN
SVBI
SGBX
SGOC
SMED
SHSP
SHEN
PIXY
SHLO
TYHT
SWAV
SCVL
SHBI
SSTI
SIBN
SIEB
SIEN
BSRR
SRRA
SWIR
SIFY
SIGA
SGLB
SGLBW
SGMA
SBNY
SLGN
SILC
SLAB
SIMO
SILK
SSPK
SSPKU
SSPKW
SAMG
SSNT
SFNC
SLP
SINA
SBGI
SINO
SVA
SINT
SG
SIRI
SITM
SKYS
SKYW
SWKS
SNBR
SLM
SLMBP
SGH
SND
SMBK
SDC
SMSI
SMTX
SCKT
GIGE
SAQN
SAQNU
SAQNW
SOHU
SLRC
SUNS
SEDG
SLNO
SLGL
SLDB
SNGX
SNGXW
SOLY
SONM
SNOA
SONO
SORL
SRNE
SOHO
SOHOB
SOHON
SOHOO
SFBC
SMMC
SMMCU
SMMCW
SPFI
SSB
SFST
SMBC
SONA
SBSI
SY
SP
SGRP
SPKE
SPKEP
SPAR
SPTN
DWFI
SPPI
SPRO
ANY
SPI
SAVE
STXB
SPLK
SPOK
SPWH
SBPH
SWTX
FUND
SPT
SFM
SPSC
SRAX
SSNC
SSRM
STAA
SRAC
SRACU
SRACW
STAF
STMP
STND
SBLK
SBLKZ
SBUX
STFC
MITO
GASS
STCN
STLD
SMRT
STML
SRCL
SBT
STRL
SHOO
SFIX
SYBT
STOK
BANX
STNE
SSKN
SSYS
STRA
HNDL
STRT
STRS
STRM
SBBP
SUMR
SMMF
SSBI
SMMT
WISA
SNDE
SNDL
SNSS
STKL
SPWR
RUN
SUNW
SLGG
SMCI
SPCB
SCON
SGC
SUPN
SPRT
SURF
SGRY
SRDX
STRO
SSSS
SIVB
SIVBP
SVMK
SWKH
SYKE
SYNC
SYNL
SYNA
SNCR
SNDX
SYNH
SYBX
SNPS
SES
SYPR
SYRS
TROW
TTOO
TRHC
TCMD
TAIT
TLC
TTWO
TLND
TNDM
TLF
TANH
TAOP
TEDU
TH
THWWW
TRNX
TATT
TAYD
TCF
TCFCP
CGBD
TCRR
AMTD
GLG
PETZ
TECD
TCCO
TTGT
TGLS
TGEN
TECTP
TELA
TNAV
TLGT
TELL
TENB
TENX
TZAC
TZACU
TZACW
TER
TERP
TBNK
TSLA
TESS
TTEK
TTPH
TCBI
TCBIL
TCBIP
TXN
TXRH
TFFP
TFSL
TGTX
WTER
ANDE
TBBK
BPRN
CG
CAKE
CHEF
TCFC
DSGX
DXYN
ENSG
XONE
FBMS
FLIC
GT
HCKT
HAIN
CUBA
INTG
JYNT
KHC
OLD
LOVE
MSG
MEET
MIK
MIDD
STKS
PECK
PNTG
PRSC
REAL
RMR
SMPL
TSG
TTD
YORW
NCTY
TXMD
TRPX
THTX
TBPH
THMO
TCRD
THBR
THBRU
THBRW
TLRY
TSBK
TIPT
TITN
TMDI
TTNP
TVTY
TIVO
TLSA
TMUS
TMSR
TOCA
TNXP
TOPS
TRCH
TRMD
TOTA
TOTAR
TOTAU
TOTAW
TBLT
TBLTW
TSEM
CLUB
TOWN
TPIC
TCON
TSCO
TW
TWMC
TACT
TRNS
TGA
TBIO
TMDX
TA
TANNI
TANNL
TANNZ
TZOO
TRMT
TRVN
TRVI
TPCO
TCDA
TCBK
TDAC
TDACU
TDACW
TRIL
TRS
TRMB
TRIB
TCOM
TRIP
TSC
TSCAP
TSCBP
TBK
TRVG
TROV
TRUE
TRUP
TRST
TRMK
MEDS
TSRI
TTEC
TTMI
TC
TCX
TUES
TOUR
TPTX
HEAR
THCB
THCBU
THCBW
THCA
THCAU
THCAW
TWIN
TWST
TYME
USCR
PRTS
USEG
GROW
USAU
USWS
USWSW
UFPT
ULTA
UCTT
RARE
ULBI
UMBF
UMPQ
UNAM
LATN
LATNU
LATNW
UNB
QURE
UAL
UBCP
UBOH
UBSI
UCBI
UFCS
UIHC
UNFI
UBFO
USLM
UTHR
UG
UNIT
UNTY
UBX
OLED
UEIC
UFPI
ULH
USAP
UVSP
UMRX
TTTN
TIGR
UPLD
UPWK
UONE
UONEK
URBN
MYT
URGN
UROV
ECOL
ECOLW
USAK
USIO
UTMD
UTSI
UXIN
VCNX
VALX
VLY
VLYPO
VLYPP
VALU
VNDA
BBH
ANGL
BJK
PPH
RTH
SMH
ESPO
VWOB
VNQI
VCIT
VGIT
VIGI
VYMI
VCLT
VGLT
VMBS
VONE
VONG
VONV
VTWO
VTWG
VTWV
VTHR
VCSH
VTIP
VGSH
BND
VTC
BNDX
VXUS
BNDW
VREX
VRNS
VBLT
VXRT
VBIV
VTIQ
VTIQU
VTIQW
VECO
VERO
VEON
VRA
VCYT
VSTM
VERB
VERBW
VCEL
VERY
VRNT
VRSN
VRSK
VBTX
VERI
VRML
VRNA
VRRM
VRCA
VTNR
VRTX
VERU
VIAC
VIACA
VSAT
VIAV
VICR
VCTR
CIZ
VSDA
CEY
CEZ
CID
CIL
CFO
CFA
CSF
CDC
CDL
VSMV
CSB
CSA
VIE
VMD
VRAY
VKTX
VKTXW
VBFC
VFF
VLGEA
VIOT
VNOM
VIR
VIRC
VTSI
VIRT
VRTS
BBC
BBP
VRTU
VISL
VTGN
VC
VIVE
VVPR
VVUS
VOD
VG
VOXX
VYGR
VSEC
VTVT
VUZI
WAFU
HLAL
WTRH
WBA
WSG
WAFD
WASH
WSBF
WTRE
WTREP
WVE
WSTG
WDFC
HHHH
HHHHR
HHHHU
HHHHW
WB
WEBK
WEN
WERN
WSBC
WTBA
WABC
WSTL
WINC
WBND
WDC
WNEB
WPRT
WWR
WEYS
WHLR
WHLRD
WHLRP
WHF
WHFBZ
WHLM
WVVI
WVVIP
WLDN
WLFC
WLTW
WSC
WING
WINA
WINS
WTFC
WTFCM
AGND
CXSE
WCLD
EMCG
EMCB
DGRE
DXGE
HYZD
AGZD
WETF
DXJS
GULF
HYND
DGRW
DGRS
WKEY
WIX
WWD
WDAY
WKHS
WRLD
WRTC
WMGI
WSFS
WVFC
WW
WYNN
XFOR
XBIT
XELB
XEL
XNCR
XBIO
XBIOW
XENE
XERS
XLNX
XOMA
XP
XPEL
XPER
XSPA
XTLB
XNET
YNDX
YTRA
YTEN
YIN
YMAB
YGYI
YGYIP
YRCW
CTIB
ZGYHU
YJ
ZFGN
ZAGG
ZLAB
ZEAL
ZBRA
ZCMD
Z
ZG
ZN
ZNWAA
ZION
ZIONL
ZIONN
ZIONO
ZIONP
ZIONW
ZIOP
ZIXI
ZKIN
ZGNX
ZM
ZSAN
ZVO
ZS
ZUMZ
ZYNE
ZYXI
ZNGA
DDD
MMM
WBAI
WUBA
EGHT
AHC
AOS
ATEN
AIR
AAN
ABB
ABT
ABBV
ANF
AGD
AWP
ACP
JEQ
AOD
ABM
AKR
ACEL
ACEL.WS
ACN
ACCO
ATV
AYI
GOLF
ADX
PEO
AGRO
ADNT
ADT
ATGE
AAP
ADSW
WMS
ASIX
AVK
ACM
AEFC
AEB
AEG
AER
AJRD
AMG
MGR
AFL
MITT
MITT^A
MITT^B
MITT^C
AGCO
A
AEM
ADC
AL
AL^A
APD
AYR
ALP^Q
ALG
AGI
ALK
AIN
ALB
AA
ALC
ALEX
ALX
ARE
AQN
AQNA
AQNB
BABA
Y
ATI
ALLE
AGN
ALE
ADS
AFB
AWF
AB
AIO
CBH
NCV
NCV^A
NCZ
NCZ^A
ACV
NIE
NFJ
ALSN
ALL
ALL^B
ALL^G
ALL^H
ALL^I
ALLY
ALLY^A
PINE
ALTG
ALTG.WS
AYX
ATUS
MO
ACH
ALUS
ALUS.U
ALUS.WS
AMBC
AMBC.WS
ABEV
AMC
AMCR
AEE
AMRC
AMOV
AMX
AAT
AXL
ACC
AEO
AEP
AEP^B
AEL
AEL^A
AXP
AFG
AFGB
AFGC
AFGH
AMH
AMH^D
AMH^E
AMH^F
AMH^G
AMH^H
AIG
AIG.WS
AIG^A
ARL
ARA
AWR
AMT
AVD
AWK
COLD
AMP
ABC
RYCE
AMN
AMRX
AP
APH
AXR
HKIB
AME
PLAN
FINS
AU
BUD
AXE
NLY
NLY^D
NLY^F
NLY^G
NLY^I
AM
AR
ANTM
ANH
ANH^A
ANH^B
ANH^C
AON
APA
AIV
APY
APHA
ARI
APO
APO^A
APO^B
AFT
AIF
APLE
AIT
ATR
APTV
WAAS
ARMK
ABR
ABR^A
ABR^B
ABR^C
ARC
MT
ARCH
ADM
AROC
ARNC
ARNC$
ARCO
ACA
RCUS
ARD
ASC
AFC
ACRE
ARDC
ARES
ARES^A
AGX
ARGD
ARGO
ANET
AI
AI^B
AI^C
AIC
AIW
ARLO
AHH
AHH^A
ARR
ARR^C
AFI
AWI
ARW
AJG
APAM
ASA
ABG
ASX
ASGN
AHT
AHT^D
AHT^F
AHT^G
AHT^H
AHT^I
ASH
ASPN
AHL^C
AHL^D
AHL^E
AMK
ASB
ASB^C
ASB^D
ASB^E
AC
AIZ
AIZP
AGO
AGO^B
AGO^E
AGO^F
AZN
HOME
T
T^A
T^C
TBB
TBC
ATTO
ATH
ATH^A
ATH^B
ATKR
AT
ATCO
ATCO^D
ATCO^E
ATCO^G
ATCO^H
ATCO^I
ATO
ACB
ATHM
ALV
AN
AZO
AVLR
AVB
AGR
AVNS
AVTR
AVTR^A
AVYA
AVY
AVH
AVA
AVX
AXTA
AXS
AXS^E
AX
AXO
AZUL
AZRE
AZZ
BGS
BW
BGH
BMI
BCSF
BKR
BBN
BLL
BANC
BANC^D
BANC^E
BBAR
BBVA
BBD
BBDO
BCH
BLX
BSBR
BSAC
BSMX
SAN
SAN^B
CIB
BXS
BXS^A
BAC
BAC^A
BAC^B
BAC^C
BAC^E
BAC^K
BAC^L
BAC^M
BAC^N
BML^G
BML^H
BML^J
BML^L
BOH
BMO
NTB
BNS
BKU
BCS
BBDC
MCI
MPV
BNED
B
GOLD
BHC
BAX
BTE
BBX
BCE
BZH
BDX
BDXA
BDC
BRBR
BHE
BRK.A
BRK.B
BHLB
BERY
BBY
BEST
BGSF
BHP
BBL
BIG
BH
BH.A
BILL
BHVN
BIO
BIO.B
BITA
BJ
BKH
BKI
BSM
BB
BGIO
BFZ
CII
BHK
HYT
BTZ
DSU
BGR
BDJ
EGF
FRA
BFO
BGT
BOE
BME
BMEZ
BAF
BKT
BGY
BKN
BTA
BZM
MHE
BIT
MUI
MNE
MUA
BKK
BBK
BBF
BYM
BFK
BLE
BTT
MEN
MUC
MUH
MHD
MFL
MUJ
MHN
MUE
MUS
MVT
MYC
MCA
MYD
MYF
MFT
MIY
MYJ
MYN
MPA
MQT
MYI
MQY
BNY
BQH
BSE
BFY
BCX
BST
BSTZ
BSD
BUI
BHV
BLK
BGB
BGX
BSL
BE
APRN
BCRH
BXG
BXC
DCF
DHF
DMB
DSM
LEO
BA
BCC
BCEI
BOOT
BAH
BWA
BORR
SAM
BXP
BXP^B
BSX
BOX
BYD
BPMP
BP
BPT
BRC
BHR
BHR^B
BHR^D
BDN
BWG
LND
BAK
BRFS
BGG
MNRL
BFAM
BEDU
BSA
BSIG
BV
EAT
BCO
BMY
BMY~
BTI
BRX
BRMK
BR
BKD
BAM
BBU
DTLA^
BIP
RA
BEP
BEP^A
BRO
BF.A
BF.B
BRT
BC
BC^A
BC^B
BC^C
BKE
BVN
BBW
BG
BURL
BWXT
BY
PFH
CABO
CBT
COG
CACI
WHD
CADE
CAE
CAI
CAI^A
CAI^B
CAL
CRC
CWT
CALX
ELY
CPE
CPT
CCJ
CPB
CWH
GOOS
CM
CNI
CNQ
CP
CANG
CNNE
CTST
CAJ
CGC
CMD
COF
COF^F
COF^G
COF^H
COF^I
COF^J
CSU
BXMT
CPRI
CMO
CMO^E
CAH
CSL
KMX
CCL
CUK
CRS
CSV
CARR$
CARS
CRI
CVNA
CSPR
CSLT
CTLT
CTT
CAT
CATO
CBZ
CBL
CBL^D
CBL^E
CBO
IGR
CBRE
CBX
FUN
CDR
CDR^B
CDR^C
CE
CLS
CELG~
CEL
CPAC
CX
CVE
CNC
CEN
CNP
CNP^B
EBR
EBR.B
CEPU
CCS
CTL
CDAY
CF
GIB
ECOM
CHAP
CHRA
CRL
CLDT
CMCM
CHGG
CHE
CC
CHMI
CHMI^A
CHMI^B
CHK
CHK^D
CPK
CVX
CHWY
CHS
CIM
CIM^A
CIM^B
CIM^C
CIM^D
DL
CEA
CHN
CGA
LFC
CHL
COE
SNP
XRF
ZNH
CHA
CHU
CYD
CMG
CHH
CB
CHT
CHD
CCX
CCX.U
CCX.WS
CCXX.U
CIEN
CI
XEC
CBB
CBB^B
CNK
CINR
CIR
CIT
CIT^B
CCAC.U
BLW
C
C^J
C^K
C^N
C^S
CFG
CFG^D
CFG^E
CIA
CIO
CIO^A
CVEO
CCC
CLH
CCO
EMO
CEM
CTR
CLW
CWEN
CWEN.A
CLF
CLPR
CLX
CLDR
NET
CMS
CMS^B
CMSA
CMSC
CMSD
CNA
CNF
CNHI
CNO
CEO
CNXM
CNX
KOF
KO
CCEP
CDE
FOF
CNS
UTF
LDP
MIE
RQI
RNP
PSF
RFI
CFX
CFXA
CL
CCH
CCH.U
CCH.WS
CXE
CIF
CXH
CMU
CLNY
CLNY^G
CLNY^H
CLNY^I
CLNY^J
CLNC
CXP
STK
CCZ
CMA
FIX
CMC
CBU
CYH
CHCT
CIG
CIG.C
CBD
SBS
ELP
CCU
CODI
CODI^A
CODI^B
CODI^C
CMP
CRK
CAG
CXO
CCM
CNMD
COP
CCR
CEIX
ED
STZ
STZ.B
CSTM
TCS
CLR
VLRS
CTRA
CTB
CPS
CTK
CPA
CLB
CXW
CLGX
CORR
CORR^A
CPLG
COR
CNR
GLW
CAAP
GYC
OFC
CTVA
CZZ
CMRE
CMRE^B
CMRE^C
CMRE^D
CMRE^E
COTY
CUZ
CVA
CVIA
CPF
CR
CRD.A
CRD.B
BAP
CS
CPG
CEQP
CEQP^
CRH
CRT
CAPL
CCI
CCI^A
CCK
CRY
CTS
CUBE
CUB
CFR
CULP
CMI
CURO
CW
SRF
SRV
SZC
CWK
CUBB
CUBI
CUBI^C
CUBI^D
CUBI^E
CUBI^F
CVI
UAN
CVS
CELP
DHI
DAN
DHR
DHR^A
DAC
DQ
DRI
DAR
DVA
DCP
DCP^B
DCP^C
DECK
DE
DEX
DDF
DKL
DK
DELL
DLPH
DAL
DLX
DNR
DBI
DESP
DB
DXB
DVN
DHX
DHT
DEO
DO
DSSI
DRH
DSX
DSX^B
DKS
DBD
DLR
DLR^C
DLR^G
DLR^I
DLR^J
DLR^K
DLR^L
DDS
DDT
DIN
DFS
DNI
DMYT.U
DLB
DG
D
DCUE
DRUA
DPZ
UFS
DCI
DFIN
LPG
DSL
DBL
DLY
PLOW
DEI
DOV
DVD
DOW
RDY
DRD
DRQ
DS
DS^B
DS^C
DS^D
DTE
DTJ
DTP
DTQ
DTW
DTY
DCO
DSE
DNP
DTF
DUC
DPG
DUK
DUK^A
DUKB
DUKH
DRE
DD
DXC
DY
DLNG
DLNG^A
DLNG^B
DT
DX
DX^B
DX^C
CTA^A
CTA^B
ELF
EGIF
EXP
ECC
ECCB
ECCX
ECCY
EIC
ESTE
DEA
EGP
EMN
KODK
ETN
ETV
ETW
EV
EOI
EOS
EFT
EFL
EFF
EHT
ETX
EOT
EVN
ETJ
EFR
EVF
EVG
EVT
ETO
ETG
ETB
EXD
ETY
EXG
ECT
ECL
EC
EPC
EIX
EW
EP^C
EE
ELAN
ELAT
ESTC
EGO
ESI
ELVT
LLY
EFC
EFC^A
EARN
AKO.A
AKO.B
ERJ
EME
EEX
EBS
EMR
ESRT
EIG
EDN
ENBL
ENB
ENBA
EHC
DAVA
EXK
ENIA
ENIC
ENR
ENR^A
ET
ETP^C
ETP^D
ETP^E
EPAC
ERF
ENS
E
ENLC
EBF
ENVA
NPO
ETM
EAB
EAE
EAI
ETR
ELC
ELJ
ELU
EMP
ENJ
ENO
ETI^
EZT
EPD
EVC
ENV
NVST
EVA
ENZ
EOG
EPAM
EPR
EPR^C
EPR^E
EPR^G
EQM
EQT
EFX
EQNR
EQH
EQH^A
ETRN
EQC
EQC^D
ELS
EQR
EQS
ERA
EROS
ESE
ESNT
EPRT
WTRG
WTRU
ESS
EL
ETH
EURN
EEA
EB
EVR
RE
EVRG
EVRI
ES
EVTC
EVH
AQUA
XAN
XAN^C
EXPR
EXTN
EXR
XOM
FNB
FNB^E
FN
FDS
FICO
SFUN
FPAC
FPAC.U
FPAC.WS
FTCH
FPI
FPI^B
FSLY
FBK
FFG
AGM
AGM.A
AGM^A
AGM^C
AGM^D
FRT
FRT^C
FSS
FHI
FMN
FDX
RACE
FOE
FG
FG.WS
FCAU
FNF
FIS
FMO
FINV
FAF
FBP
FCF
FHN
FHN^A
FR
AG
FRC
FRC^F
FRC^G
FRC^H
FRC^I
FRC^J
FFA
FMY
FDEU
FIF
FSD
FPF
FEI
FPL
FIV
FCT
FGB
FEO
FAM
FE
FIT
FPH
FVRR
FBC
DFP
PFD
PFO
FFC
FLC
FLT
FLNG
FND
FTK
FLO
FLS
FLR
FLY
FEAC.U
FMC
FMX
FL
F
F^B
F^C
FOR
FTS
FTV
FTV^A
FTAI
FTAI^A
FTAI^B
FSM
FBHS
FET
FBM
FCPT
FEDU
FNV
FC
FSB
BEN
FT
FI
FCX
FMS
FDP
RESI
FRO
FSK
FCN
FTSI
FF
GCV
GAB
GAB^G
GAB^H
GAB^J
GAB^K
GGZ
GGZ^A
GGT
GGT^E
GGT^G
GUT
GUT^A
GUT^C
GCAP
GLEO
GLEO.U
GLEO.WS
GBL
GNT
GNT^A
GME
GCI
GPS
GTX
IT
GLOG
GLOG^A
GLOP
GLOP^A
GLOP^B
GLOP^C
GTES
GATX
GMTA
GCP
GNK
GNRC
GAM
GAM^B
GD
GE
GIS
GM
GCO
GEL
GEN
GNE
GNE^A
G
GPC
GNW
GEO
GPRK
GPJA
GGB
GTY
GFL
GFLU
GIX
GIX.U
GIX.WS
GIX~
GIL
GLT
GKOS
GSK
CO
GMRE
GMRE^A
GNL
GNL^A
GNL^B
GLP
GLP^A
GPN
GSL
GSL^B
GSLD
GLOB
GL
GL^C
GMED
GMS
GNC
GDDY
GOL
GFI
GSBD
GS
GS^A
GS^C
GS^D
GS^J
GS^K
GS^N
GER
GMZ
GRC
GPX
GGG
GRAF
GRAF.U
GRAF.WS
EAF
GHM
GHC
GRAM
GVA
GPMT
GRP.U
GPK
GTN
GTN.A
AJX
AJXA
GWB
GDOT
GBX
GHL
GHG
GEF
GEF.B
GFF
GPI
GRUB
PAC
ASR
AVAL
SUPV
TV
GSX
GTT
GSH
GES
GGM
GPM
GOF
GBAB
GWRE
HRB
FUL
HAE
HAL
HBB
HBI
HNGR
HASI
HOG
HMY
HSC
HHS
HGH
HIG
HIG^G
HVT
HVT.A
HE
HCHC
HCA
HCI
HDB
HR
HTA
PEAK
HL
HL^B
HEI
HEI.A
HLX
HP
HLF
HRI
HCXY
HCXZ
HTGC
HRTG
PSV
HT
HT^C
HT^D
HT^E
HSY
HTZ
HES
HESM
HPE
HXL
HEXO
HCR
PCF
HGLB
HFRO
HFRO^A
HPR
HIW
HIL
HI
HRC
HTH
HGV
HLT
HNI
HMLP
HMLP^A
HEP
HFC
HD
HMC
HON
HMN
HZN
HTFA
HRL
HST
HLI
HOV
HHC
HWM$
HPQ
HSBC
HSBC^A
HMI
HNP
HUBB
HUBS
HBM
HUD
HPP
HUM
HCFT
HII
HUN
HUYA
H
HY
IAA
IAG
IBN
IDA
IEX
IDT
INFO
ITW
IMAX
ICD
IHC
IRT
IFN
IBA
INFY
ING
ISG.CL
IR
NGVT
INGR
IIPR
IIPR^A
IPHI
INSI
NSP
INSP
IBP
INST
ITGR
I
ICE
IHG
IFS
IBM
IFF
IFFT
IGT
IP
INSW
INSW^A
IPV
IPV.U
IPV.WS
IPG
IPI
IVC
VBF
VCV
VTA
IHIT
IHTA
VLT
IVR
IVR^B
IVR^C
IVR^A
OIA
VMO
VKQ
VPV
IVZ
IQI
VVR
VTN
VGM
IIM
IRET
IRET^C
NVTA
INVH
IO
IQV
IRM
IRS
ICL
STAR
STAR^D
STAR^G
STAR^I
ITCB
ITUB
ITT
IVH
JPM
JPM^C
JPM^D
JPM^G
JPM^H
JPM^J
JAX
JILL
JCP
SJM
JBL
J
JHX
JHG
JOF
JBGS
JEF
JELD
JCAP
JCAP^B
JT
JKS
JMP
JBT
BTO
HEQ
JHS
JHI
HPF
HPI
HPS
PDT
HTD
HTY
JW.A
JW.B
JNJ
JCI
JLL
JMEI
JMIA
JIH
JIH.U
JIH.WS
JNPR
JP
JE
JE^A
LRN
KAI
KDMN
KAMN
KSU
KSU^
KAR
KMF
KYN
KB
KBH
KBR
K
KEM
KMPR
KMT
KW
KEN
KDP
KEY
KEY^I
KEY^J
KEY^K
KEYS
KRC
KRP
KMB
KIM
KIM^L
KIM^M
KMI
KFS
KGC
KEX
KL
KRG
KKR
KKR^A
KKR^B
KIO
KREF
KNX
KNL
KNOP
KN
KSS
PHG
KTB
KOP
KEP
KF
KFY
KOS
KRA
KR
KRO
KT
LB
SCX
LHX
LH
LADR
LAIX
LW
LCI
LPI
LVS
LTM
LGI
LAZ
LZB
LCII
LEAF
LEA
LEE
LGC
LGC.U
LGC.WS
LM
LMHA
LMHB
LEG
JBK
KTH
KTN
KTP
LDOS
LEJU
LC
LEN
LEN.B
LII
LHC
LHC.U
LHC.WS
LEVI
LXP
LXP^C
LPL
DFNS
DFNS.U
DFNS.WS
USA
ASG
LBRT
LSI
LITB
LNC
LIN
LNN
LN
LINX
LGF.A
LGF.B
LAD
LAC
LYV
LTHM
RAMP
LYG
SCD
LMT
L
LOMA
LPX
LOW
LXU
LTC
LUB
LL
LXFR
LDL
LYB
MTB
MDC
MHO
MAC
CLI
MFD
MGU
MIC
BMA
M
MCN
MMP
MGA
MX
MGY
MH^A
MH^C
MH^D
MHLA
MHNC
MAIN
MMD
MNK
MANU
MTW
MN
MAN
MFC
MRO
MPC
MMI
MCS
MPX
HZO
MKL
VAC
MMC
MLM
MAS
DOOR
MTZ
MA
MTDR
MTRN
MATX
MLP
MAXR
MMS
MXL
MEC
MBI
MKC
MKC.V
MCD
MUX
MCK
MDU
MTL
MTL^
MDLA
MPW
MED
MCC
MCV
MCX
MDLQ
MDLX
MDLY
MD
MDT
MFAC
MFAC.U
MFAC.WS
MRK
MCY
MDP
MTH
MTOR
MER^K
PIY
MTR
MSB
MEI
MET
MET^A
MET^E
MET^F
MCB
MTD
MXE
MXF
MFA
MFA^B
MFA^C
MFO
MCR
MGF
MIN
MMT
MFM
MFV
MTG
MGP
MGM
MFGP
MAA
MAA^I
AMPY
MLR
HIE
MTX
MG
MUFG
MIXT
MFG
MBT
MODN
MOD
MC
MOGU
MHK
MOH
TAP
TAP.A
MNR
MNR^C
MR
MCO
MOG.A
MOG.B
MS
MS^A
MS^E
MS^F
MS^I
MS^K
MS^L
CAF
MSD
EDD
IIF
MOS
MSI
MOV
MPLX
MRC
HJV
MSA
MSM
MSCI
MSGN
MLI
MWA
MVF
MZA
MUR
MUSA
MVO
MVC
MVCD
MYE
MYOV
NBR
NBR^A
NC
NTP
NTEST
NTEST.A
NTEST.B
NTEST.C
NBHC
NFG
NGG
NHI
NOV
NPK
NNN
NNN^F
NRUC
SID
NSA
NSA^A
NTCO
NGS
NGVC
NRP
NTZ
NLS
NVGS
NNA
NM
NM^G
NM^H
NMM
NAV
NAV^D
NCR
NP
NNI
NPTN
NSCO
NSCO.WS
NVRO
HYB
NFH
NFH.WS
GF
NWHM
IRL
NMFC
NMFX
EDU
NEWR
NRZ
NRZ^A
NRZ^B
NRZ^C
SNR
NYCB
NYCB^A
NYCB^U
NYT
NJR
NEU
NEM
NR
NEXA
NREF
NXRT
NHF
NEP
NEE
NEE^I
NEE^J
NEE^K
NEE^N
NEE^O
NEE^P
NEX
NGL
NGL^B
NGL^C
NMK^B
NMK^C
NLSN
NKE
NINE
NIO
NI
NI^B
NL
NOAH
NE
NOK
NOMD
NMR
OSB
NAT
JWN
NSC
NOA
NRT
NOC
NWN
NWE
NCLH
NVS
NVO
DNOW
NRG
NUS
NUE
NS
NS^A
NS^B
NS^C
NSS
NTR
JMLP
NVG
NUV
NUW
NEA
NAZ
NKX
NCB
NCA
NAC
JCE
JCO
JQC
JDD
DIAX
JEMD
JMF
NEV
JFR
JRO
NKG
JGH
JHY
JHAA
JHB
NXC
NXN
NID
NMY
NMT
NUM
NMS
NOM
JLS
JMM
NHA
NZF
NMCO
NMZ
NMI
NJV
NXJ
NRK
NYV
NNY
NAN
NUO
NPN
NQP
JPC
JPS
JPT
JPI
NAD
JRI
JRS
BXMX
SPXX
NIM
NXP
NXQ
NXR
NSL
JSD
NBB
JTD
JTA
NPV
NIQ
NVT
NVR
CTEST
CTEST.E
CTEST.G
CTEST.L
CTEST.O
CTEST.S
CTEST.V
OAC
OAC.U
OAC.WS
OAK^A
OAK^B
OBE
OXY
OII
OCN
OFG
OFG^A
OFG^B
OFG^D
OGE
OI
OIBR.C
OIS
ODC
ORI
OLN
OHI
OMC
OMN
ONDK
OGS
OLP
OCFT
OMF
OKE
ONE
ONTO
OOMA
OPY
ORCL
ORAN
ORC
OEC
ORN
IX
ORA
OSK
OR
SFTW
SFTW.U
SFTW.WS
OTIS$
OUT
OSG
OVV
OMI
OC
ORCC
OXM
ROYT
PACD
PCG
PKG
PD
PAGS
PANW
PAM
PHX
PARR
PAR
PGRE
PKE
PK
PH
PE
PSN
PRE^F
PRE^G
PRE^H
PRE^I
PRTY
PAYC
PBF
PBFX
BTU
PSO
PEB
PEB^C
PEB^D
PEB^E
PEB^F
PBA
PEI
PEI^B
PEI^C
PEI^D
PFSI
PMT
PMT^A
PMT^B
PAG
PNR
PEN
PFGC
PKI
PBT
PVL
PRT
PRGO
PRSP
PTR
PBR
PBR.A
PFE
GHY
ISD
PGTI
PM
PSX
PSXP
FENG
DNK
PHR
DOC
PDM
PCQ
PCK
PZC
PCM
PTY
PCN
PCI
PDI
NRGX
PGP
PHK
PKO
PFL
PFN
PMF
PML
PMX
PNF
PNI
PYN
RCS
PING
PNW
PINS
PHD
PHT
MAV
MHI
PXD
PIPR
PBI
PBI^B
PIC
PIC.U
PIC.WS
PJT
PAA
PAGP
PLNT
PLT
AGS
PHI
PLYM
PNC
PNC^P
PNC^Q
PNM
PII
POL
POR
PKX
POST
PSTL
PPG
PPX
PPL
PYS
PYT
PQG
PDS
APTS
PBH
PVG
PRI
PRMW
PGZ
PRIF^A
PRIF^B
PRIF^C
PRIF^D
PRIF^E
PRIF^F
PRA
PG
PGR
PLD
PUMP
PRO
PROS
PBB
PBC
PBY
PB
PRLB
PFS
PJH
PRH
PRS
PRU
PUK
PUK^
PUK^A
PSB
PSB^W
PSB^X
PSB^Y
PSB^Z
TLK
PEG
PSA
PSA^B
PSA^C
PSA^D
PSA^E
PSA^F
PSA^G
PSA^H
PSA^I
PSA^J
PSA^K
PSA^V
PSA^W
PSA^X
PHM
PSTG
PMM
PIM
PMO
PPT
NEW
PVH
PYX
PZN
QTWO
QEP
QGEN
QTS
QTS^A
QTS^B
QUAD
KWR
NX
PWR
QD
DGX
QES
QHC
QUOT
QVCC
QVCD
CTAA
CTBB
CTDD
CTV
CTY
CTZ
RRD
RMED
RDN
RFL
RL
RRC
RNGR
PACK
PACK.WS
RJF
RYAM
RYN
RTN
RMAX
RC
RCA
RCB
RCP
RLGY
O
RLH
RWT
RBC
RM
RF
RF^A
RF^B
RF^C
RGS
RGA
RZA
RZB
RS
RELX
RNR
RNR^C.CL
RNR^E
RNR^F
SOL
RENN
RPLA
RPLA.U
RPLA.WS
RSG
REZI
RMD
RFP
QSR
RPAI
RVI
REVG
REV
RVLV
REX
REXR
REXR^A
REXR^B
REXR^C
RXN
RH
RNG
RIO
RBA
RAD
RMM
RMPL^
RSF
RMI
RIV
OPP
RLI
RLJ
RLJ^A
RMG
RMG.U
RMG.WS
RRTS
RHI
ROK
RCI
ROG
ROL
ROP
RST
RY
RY^T
RBS
RCL
RDS.A
RDS.B
RGT
RMT
RVT
RES
RPM
RPT
RPT^D
RTW
RYB
R
RYI
RHP
SPGI
SBR
SB
SB^C
SB^D
SFE
SAFE
SAIL
CRM
SMM
SBH
SJT
SD
PER
SAND
SC
SAP
SAF
SAR
SSL
BFS
BFS^D
BFS^E
SCPE
SCPE.U
SCPE.WS
SLB
SNDR
SWM
SAIC
SALT
SBNA
STNG
SMG
KTF
KSM
SRL
SCU
SCVX
SCVX.U
SCVX.WS
SE
SA
CKH
SMHI
SDRL
SEE
SEAS
JBN
JBR
WTTR
SEM
SRE
SRE^A
SRE^B
SREA
ST
SXT
SQNS
SRG
SRG^A
SCI
SERV
NOW
SFL
SHAK
SJR
SHLX
SHW
SHG
SHOP
SSTK
SBSW
SIG
SBOW
SI
SPG
SPG^J
SSD
SHI
SITC
SITC^A
SITC^K
SITE
SIX
SJW
SKM
SKX
SKY
SLG
SLG^I
WORK
SM
SMAR
SNN
SNAP
SNA
SQM
SOGO
SOI
SWI
SAH
SON
SNE
SOR
SJI
SJIJ
SJIU
SCE^G
SCE^H
SCE^J
SCE^K
SCE^L
SO
SOJA
SOJB
SOJC
SOJD
SOLN
SCCO
LUV
SWX
SWN
SPAQ
SPAQ.U
SPAQ.WS
SPE
SPE^B
SPB
SR
SR^A
SPR
SAVE
SRC
SRC^A
SPOT
SRLP
S
SPXC
FLOW
SQ
JOE
STAG
STAG^C
SSI
SMP
SXI
SWK
SWP
SWT
STN
SGU
SRT
STWD
STT
STT^D
STT^G
SPLP
SPLP^A
SCS
SCA
SCM
SCL
STE
STL
STL^A
STC
SF
SF^A
SF^B
SFB
STM
EDF
EDI
STON
SRI
STOR
GJH
GJO
GJS
SYK
MSC
RGR
SPH
SMFG
INN
INN^D
INN^E
SUM
SMLP
SUI
SLF
SXC
SU
STG
NOVA
SUN
SHO
SHO^E
SHO^F
SPN
SUP
SUZ
SWZ
SWCH
SBE
SBE.U
SBE.WS
SYF
SYF^A
SNX
SNV
SNV^D
SNV^E
GJP
GJR
GJT
SYY
SYX
TLRD
TWN
TSM
TAK
TAL
TGE
TALO
SKT
TPR
NGLS^A
TRGP
TGT
TARO
TTM
TCO
TCO^J
TCO^K
TMHC
TRP
TCP
TSI
TEL
TISI
FTI
TECK
TK
TGP
TGP^A
TGP^B
TOO^A
TOO^B
TOO^E
TNK
TGNA
TRC
HQH
THQ
HQL
THW
TDOC
TLRA
TEO
TDY
TFX
VIV
TEF
TDA
TDE
TDI
TDJ
TDS
TU
TDF
EMF
TEI
GIM
TPX
TS
TME
THC
TNC
TEN
TVC
TVE
TDC
TEX
TX
TRNO
TTI
TEVA
TPL
TGH
TXT
TFII
AES
BK
BK^C
BX
CEE
SCHW
SCHW^C
SCHW^D
COO
GDV
GDV^A
GDV^G
GDV^H
GRX
GRX^A.CL
GRX^B
GDL
GDL^C
THG
THGA
MSG
RUBI
TRV
VAM
TMO
THR
TPRE
TSLF
TCRW
TCRZ
TRI
THO
TDW
TDW.WS.A
TDW.WS.B
TIF
TLYS
TSU
TKR
TMST
TWI
TJX
TOL
TR
BLD
TTC
TD
SHLL
SHLL.U
SHLL.WS
NDP
TYG
TEAF
NTG
TTP
TPZ
TOT
TSQ
TM
TRTX
TSLX
TT
TAC
TCI
TDG
RIG
TGS
TRU
TREC
TG
THS
TREX
TY
TY^
TPH
TRNE
TRNE.U
TRNE.WS
TNET
TRN
TSE
TPVG
TPVY
GTS
TRTN
TRTN^A
TRTN^B
TRTN^C
TRTN^D
TGI
TROX
TBI
TFC
TFC^F
TFC^G
TFC^H
TFC^I
TNP
TNP^C
TNP^D
TNP^E
TNP^F
TUFN
TUP
TKC
TPB
TRQ
TPC
TWLO
TRWH
TWTR
TWO
TWO^A
TWO^B
TWO^C
TWO^D
TWO^E
TYL
TSN
USB
USB^A
USB^H
USB^M
USB^O
USB^P
USPH
SLCA
USX
UBER
UI
UBS
UDR
UGI
UGP
UMH
UMH^B
UMH^C
UMH^D
UA
UAA
UFI
UNF
UN
UL
UNP
UIS
UNT
UMC
UNFI
UPS
URI
USM
UZA
UZB
UZC
X
UTX
UTX$
UNH
UTL
UNVR
UVV
UHT
UHS
UVE
UTI
UNM
UNMA
UE
UBA
UBP
UBP^H
UBP^K
USFD
USAC
USNA
USDP
BIF
VFC
EGY
MTN
VAL
VALE
VLO
VHI
VMI
VVV
VAPO
VAR
VGR
VEC
VEDL
VEEV
VEL
VNTR
VTR
VNE
VER
VER^F
VRTV
VZ
VET
VRS
VCIF
VERT.U
VRT
VRT.WS
VVI
VICI
VNCE
VIPS
SPCE
SPCE.U
SPCE.WS
VGI
ZTR
V
VSH
VPG
VIST
VSTO
VST
VST.WS.A
VVNT
VVNT.WS
VSLR
VMW
VOC
VCRA
VNO
VNO^K
VNO^L
VNO^M
VJET
IAE
IHD
VOYA
VOYA^B
IGA
IGD
IDE
IID
IRR
PPR
VMC
WTI
WPC
WRB
WRB^B
WRB^C
WRB^D
WRB^E
WRB^F
GRA
GWW
WNC
WBC
WDR
WD
WMT
DIS
HCC
WPG
WPG^H
WPG^I
WRE
WCN
WM
WAT
WSO
WSO.B
WTS
W
WBS
WBS^F
WEC
WEI
WRI
WMK
WBT
WFC
WFC^L
WFC^N
WFC^O
WFC^P
WFC^Q
WFC^R
WFC^T
WFC^V
WFC^W
WFC^X
WFC^Y
WFC^Z
EOD
WELL
WCC
WST
WAL
WALA
WEA
TLI
EMD
GDO
EHI
HIX
HIO
HYI
SBI
IGI
PAI
MMU
WMC
DMO
MTT
MHF
MNP
GFY
WIW
WIA
WES
WU
WAB
WLK
WLKP
WBK
WRK
WHG
WEX
WY
WPM
WHR
WTM
WSR
WLL
WOW
WMB
WSM
WGO
WIT
WNS
WWW
WF
WK
INT
WWE
WOR
WPP
WPX
WYND
WH
XYF
XFLT
XHR
XRX
XIN
XPO
XYL
AUY
YELP
YETI
YEXT
YRD
DAO
YPF
YUMC
YUM
ZEN
ZBH
ZTS
ZTO
ZUO
ZYME
XXII
FAX
IAF
AEF
FCO
ACU
ATNM
AE
ACY
UAVS
AGE
AIRI
AXU
ALO
AAU
APT
AAMC
AMBO
DIT
AMS
USAS
AMPE
ANVS
ARNC^
ARMP
AKG
AINC
AUG
AWX
ASM
BTG
BTN
BCV
BCV^A
BHB
BRN
BATL
BIOX
BIOX.WS
PHGE
PHGE.U
PHGE.WS
BPMX
BGI
BKTI
BDR
BRBS
BRG
BRG^A
BRG^C
BRG^D
DMF
BWL.A
BRMK.WS
CMCL
CEI
CANF
YCBD
YCBD^A
CVM
CET
LEU
CCF
CQP
LNG
CVR
CPHI
CKX
CCC.WS
GLV
GLQ
GLO
COHN
CIX
LODE
CDOR
CTO
MCF
CUO
CMT
CRMD
CRF
CLM
CVU
CIK
DHY
CRHM
CTEK
DXR
VCF
VFL
VMM
DLA
DNN
DSS
DPW
DXF
GRF
EVM
CEV
EVV
EIM
ENX
EVY
ELMD
ELLO
ECF
ECF^A
EMAN
MSN
EMX
UUUU
UUUU.WS
ENSV
ELA
EQX
ESP
EVBN
EVI
EPM
FEN
BDL
FSI
FTF
FSP
FRD
GGN
GGN^B
JOB
GMO
GSB
GSAT
GORO
GSV
AUMN
GSS
GV
GDP
GTE
GPL
SIM
AIM
HLM^
HMG
HUSA
IBIO
IBO
IMH
IMO
IOR
IGC
INDO
INFU
IHT
NSPR
NSPR.WS
NSPR.WS.B
INS
THM
INTT
INUV
VKI
ISR
ISDR
ITP
KLR
KLR.WS
KIQ
LGL
LBY
LLEX
LCTX
MAG
MHH
MTNB
MMX
IPB
MTA
MXC
MICR
MLSS
MYO
NNVC
ATEST
ATEST.A
ATEST.B
ATEST.C
NHC
NAVB
NTIP
NBW
NHS
NML
NBH
NBO
NRO
GBR
NEN
NGD
NXE
NAK
NOG
NBY
NG
NTN
NES
OBLG
OCX
OGEN
PCG^A
PCG^B
PCG^C
PCG^D
PCG^E
PCG^G
PCG^H
PCG^I
PTN
PZG
PRK
PED
PFNX
HNW
PLAG
PLG
PLYM^A
PLM
PW
PW^A
PLX
RLGT
UTG
RHE
RHE^A
RCG
RVP
REI
RIF
SACC
SACH
SCCB
SNMP
SEB
SENS
SVT
SMTS
SIF
SVM
SILV
XPL
SCE^B
SCE^C
SCE^D
SCE^E
SGB
LOV
SDI
STXS
SSY
SDPI
SYN
TKAT
TALO.WS
TRX
TGB
TGC
GLU
GLU^A
GLU^B
GGO
GGO^A
TDW.WS
TMP
TAT
TRXC
TMQ
TPHS
TRT
UFAB
UAMY
UUU
URG
UEC
VHC
VGZ
VNRX
VOLT
EAD
ERC
ERH
WRN
WYY
WTT
XTNT
YUMA
ZDGE
ZOM
